{"discovery_new_1": {"timestamp": 1776189116.914083, "data": {"items": [{"title": "Tyson Fury vs. Arslanbek Makhmudov", "origin_name": "Tyson Fury vs. Arslanbek Makhmudov", "slug": "tyson-fury-vs-arslanbek-makhmudov", "poster": "https://phimimg.com/upload/vod/20260415-1/dbe83b9f2c4c432cae5db078c1ea7f2a.jpg", "year": 2026, "media_type": "movie"}, {"title": "Cực Hạn", "origin_name": "Climax", "slug": "cuc-han", "poster": "https://phimimg.com/upload/vod/20260317-1/a48394f3e66faf31b648658324ef3381.jpg", "year": 2026, "media_type": "tv"}, {"title": "Vạn Giới Độc Tôn", "origin_name": "Ten Thousand Worlds", "slug": "van-gioi-doc-ton", "poster": "https://phimimg.com/upload/vod/20250308-1/25c9c7486b5de820475bd8fe0ccb316e.jpg", "year": 2021, "media_type": "tv"}, {"title": "Thất Cốt", "origin_name": "Bone Ritual", "slug": "that-cot", "poster": "https://phimimg.com/upload/vod/20260406-1/192e03eeb8aa33f9be31ca5524d0810c.jpg", "year": 2026, "media_type": "tv"}, {"title": "Tu Tiên Giả Đại Chiến Siêu Năng Lực", "origin_name": "The Immortal VS Superheroes", "slug": "tu-tien-gia-dai-chien-sieu-nang-luc", "poster": "https://phimimg.com/upload/vod/20260215-1/289e30dc68cbebd1ae7e6705c7392900.jpg", "year": 2026, "media_type": "tv"}, {"title": "Tám Nghìn Dặm Đường Mây Và Trăng", "origin_name": "Echoes Of A Thousand Moons", "slug": "tam-nghin-dam-duong-may-va-trang", "poster": "https://phimimg.com/upload/vod/20260411-1/25080e45410b1d8aae29adc7c6d3c136.jpg", "year": 2026, "media_type": "tv"}, {"title": "Mật Ngữ Kỷ", "origin_name": "The Epoch Of Miyu", "slug": "mat-ngu-ky", "poster": "https://phimimg.com/upload/vod/20260414-1/b3dd5a4774a86dbf9c39e3de6881289a.jpg", "year": 2026, "media_type": "tv"}, {"title": "Luyện Khí Mười Vạn Năm", "origin_name": "One Hundred Thousand Years of Qi Refining", "slug": "luyen-khi-muoi-van-nam", "poster": "https://phimimg.com/upload/vod/20250219-1/0ddffeb590aa6bad556a0724302487ad.jpg", "year": 2023, "media_type": "tv"}, {"title": "Lớp Học Của Tae Ri", "origin_name": "Curtain Up, Class!", "slug": "lop-hoc-cua-tae-ri", "poster": "https://phimimg.com/upload/vod/20260309-1/37f25717bf68f8dbe17fe60f8225d06f.jpg", "year": 2026, "media_type": "tv"}, {"title": "Lão Tổ Luyện Thể Mạnh Nhất Lịch Sử", "origin_name": "The Supreme Body Refining Master", "slug": "lao-to-luyen-the-manh-nhat-lich-su", "poster": "https://phimimg.com/upload/vod/20260126-1/3e39b509bdf0432f6e1174ceaf648bb6.jpg", "year": 2026, "media_type": "tv"}], "pagination": {"totalItems": 27042, "totalItemsPerPage": 10, "currentPage": 1, "totalPages": 2705}, "success": true}}, "discovery_new_2": {"timestamp": 1776189117.570339, "data": {"items": [{"title": "Khó Lường", "origin_name": "The Silent Rift", "slug": "kho-luong", "poster": "https://phimimg.com/upload/vod/20260406-1/ec2db1d300e5287711ef9fd4f29a025c.jpg", "year": 2026, "media_type": "tv"}, {"title": "Chị Đẹp Đạp Gió 2026", "origin_name": "Ride The Wind 2026", "slug": "chi-dep-dap-gio-2026", "poster": "https://phimimg.com/upload/vod/20260408-1/f38fdd69f3add352de03cb15478d83cf.jpg", "year": 2026, "media_type": "tv"}, {"title": "Tình Yêu Đích Thực Sau Khi Cưới (Chân Tình Sau Cưới)", "origin_name": "My Romance Scammer", "slug": "tinh-yeu-dich-thuc-sau-khi-cuoi-chan-tinh-sau-cuoi", "poster": "https://phimimg.com/upload/vod/20260205-1/3ff78f2b631d5d8aaf7c891486b67bd8.jpg", "year": 2026, "media_type": "tv"}, {"title": "Cô Vợ Tí Hon", "origin_name": "The Miniature Wife", "slug": "co-vo-ti-hon", "poster": "https://phimimg.com/upload/vod/20260410-1/b77835417aa223d6b9b8e96bc558b064.jpg", "year": 2026, "media_type": "tv"}, {"title": "Băng Hồ Trọng Sinh (Sở Kiều Truyện 2)", "origin_name": "Rebirth", "slug": "bang-ho-trong-sinh-so-kieu-truyen-2", "poster": "https://phimimg.com/upload/vod/20260408-1/8ac546753f16b7e2ff322ed6bc3fe8a3.jpg", "year": 2026, "media_type": "tv"}, {"title": "Mộ Tư Từ (Bạch Nhật Đề Đăng)", "origin_name": "Love Beyond The Grave", "slug": "mo-tu-tu-bach-nhat-de-dang", "poster": "https://phimimg.com/upload/vod/20260329-1/07efc63f356411a39d21aa4c2b0d9f43.jpg", "year": 2026, "media_type": "tv"}, {"title": "Khi Mọi Điều Dần An Bài", "origin_name": "Falling into Place", "slug": "khi-moi-dieu-dan-an-bai", "poster": "https://phimimg.com/upload/vod/20260414-1/7643c8ab963fcbf773b4356d19200a4c.jpg", "year": 2023, "media_type": "movie"}, {"title": "Sáng Thế Ký", "origin_name": "The Bible: In the Beginning...", "slug": "sang-the-ky", "poster": "https://phimimg.com/upload/vod/20260413-1/352bb53d92c5b32007b99709b77acd03.jpg", "year": 1966, "media_type": "movie"}, {"title": "Bóng Hình Của Cha", "origin_name": "My Father's Shadow", "slug": "bong-hinh-cua-cha", "poster": "https://phimimg.com/upload/vod/20260413-1/676c546b49168d2f8b086375f848f3fd.jpg", "year": 2025, "media_type": "movie"}, {"title": "Bác Sĩ Nội Trú (Phần 6)", "origin_name": "The Resident (Season 6)", "slug": "bac-si-noi-tru-phan-6", "poster": "https://phimimg.com/upload/vod/20260414-1/3fe9f53ed0e7e09296e7fc06d6944c54.jpg", "year": 2022, "media_type": "tv"}], "pagination": {"totalItems": 27042, "totalItemsPerPage": 10, "currentPage": 2, "totalPages": 2705}, "success": true}}, "search_movie_one piece": {"timestamp": 1776189122.743189, "data": [{"title": "Đảo Hải Tặc", "origin_name": "One Piece", "slug": "dao-hai-tac", "poster": "https://phimimg.com/upload/vod/20240310-1/31e6c244a0673838a46732d3b4f0b190.jpg", "year": 1999, "media_type": "tv", "source": "kkphim"}, {"title": "Đảo Hải Tặc (Live Action) (Phần 2)", "origin_name": "ONE PIECE (Live Action) (Season 2)", "slug": "dao-hai-tac-live-action-phan-2", "poster": "https://phimimg.com/upload/vod/20260310-1/2a2baa14e21a3f633e7f06aed2f53dd6.jpg", "year": 2026, "media_type": "tv", "source": "kkphim"}, {"title": "Đảo Hải Tặc (Live Action) (Phần 1)", "origin_name": "ONE PIECE (Live Action) (Season 1)", "slug": "dao-hai-tac-live-action-phan-1", "poster": "https://phimimg.com/upload/vod/20260310-1/8013044ff3248265d4125729933e1413.jpg", "year": 2023, "media_type": "tv", "source": "kkphim"}, {"title": "Nhật Ký Hải Trình: One Piece Truyền Kỳ Đảo Người Cá", "origin_name": "One Piece Log: Fish-Man Island Saga", "slug": "nhat-ky-hai-trinh-one-piece-truyen-ky-dao-nguoi-ca", "poster": "https://phimimg.com/upload/vod/20241114-1/b145f04a857ff4f425308b1592da0cf0.jpg", "year": 2024, "media_type": "tv", "source": "kkphim"}, {"title": "Thư Của Fan Onepiece", "origin_name": "One Piece Fan Letter", "slug": "thu-cua-fan-onepiece", "poster": "https://phimimg.com/upload/vod/20241108-1/06dc91253f83e917fed02f73bf723eeb.jpg", "year": 2024, "media_type": "movie", "source": "kkphim"}, {"title": "Đảo Hải Tặc: Lễ Hội Hải Tặc (2019)", "origin_name": "ONE PIECE STAMPEDE 2019", "slug": "dao-hai-tac-le-hoi-hai-tac-2019", "poster": "https://phimimg.com/upload/vod/20240104-1/cd4363169ea63709e1adc3ed3730bbc9.jpg", "year": 2019, "media_type": "movie", "source": "kkphim"}, {"title": "Vua Hải Tặc: Thánh Kiếm Bị Nguyền Rủa", "origin_name": "One Piece Cursed Holy Sword One Piece: Norowareta Seiken (Movie 5)", "slug": "vua-hai-tac-thanh-kiem-bi-nguyen-rua", "poster": "https://phimimg.com/upload/vod/20231215-1/bc0130111285c5ccbb13381368008054.jpg", "year": 2004, "media_type": "movie", "source": "kkphim"}, {"title": "Đảo Hải Tặc: Đảo Trên Trời (2018)", "origin_name": "ONE PIECE Episode Of Skypiea  2018", "slug": "dao-hai-tac-dao-tren-troi-2018", "poster": "https://phimimg.com/upload/vod/20231211-1/1172faf8822cda089a34eb755d262760.jpg", "year": 2018, "media_type": "movie", "source": "kkphim"}, {"title": "Vua Hải Tặc: Cuộc Đua Tử Thần", "origin_name": "One Piece The Movie Dead End No Bouken (Movie 4)", "slug": "vua-hai-tac-cuoc-dua-tu-than", "poster": "https://phimimg.com/upload/vod/20231211-1/86f73ae1fa3992612e4abbc03f2a970a.jpg", "year": 2003, "media_type": "movie", "source": "kkphim"}, {"title": "Vua Hải Tặc: Tên Lính Máy Khổng Lồ Trong Lâu Đài Karakuri", "origin_name": "One Piece The Movie Karakuri Jou No Meka Kyohei (Movie 7)", "slug": "vua-hai-tac-ten-linh-may-khong-lo-trong-lau-dai-karakuri", "poster": "https://phimimg.com/upload/vod/20231210-1/f95b6251caa2f185a8181883f92f2a91.jpg", "year": 2006, "media_type": "movie", "source": "kkphim"}]}, "discovery_new_3": {"timestamp": 1776189624.761821, "data": {"items": [{"title": "Bác Sĩ Nội Trú (Phần 5)", "origin_name": "The Resident (Season 5)", "slug": "bac-si-noi-tru-phan-5", "poster": "https://phimimg.com/upload/vod/20260414-1/07eef2a537b01eb550df9d05df76c833.jpg", "year": 2021, "media_type": "tv"}, {"title": "Bác Sĩ Nội Trú (Phần 4)", "origin_name": "The Resident (Season 4)", "slug": "bac-si-noi-tru-phan-4", "poster": "https://phimimg.com/upload/vod/20260414-1/1f5f1ccb6b7486a798a9e1f40bf7b942.jpg", "year": 2021, "media_type": "tv"}, {"title": "Bác Sĩ Nội Trú (Phần 3)", "origin_name": "The Resident (Season 3)", "slug": "bac-si-noi-tru-phan-3", "poster": "https://phimimg.com/upload/vod/20260414-1/9f7f053742812f509ebf88e13d97ca50.jpg", "year": 2019, "media_type": "tv"}, {"title": "Bác Sĩ Nội Trú (Phần 2)", "origin_name": "The Resident (Season 2)", "slug": "bac-si-noi-tru-phan-2", "poster": "https://phimimg.com/upload/vod/20260414-1/df05303ee06bdb6eeb5ec03833a83532.jpg", "year": 2018, "media_type": "tv"}, {"title": "Bác Sĩ Nội Trú (Phần 1)", "origin_name": "The Resident (Season 1)", "slug": "bac-si-noi-tru-phan-1", "poster": "https://phimimg.com/upload/vod/20260414-1/5dcfa2d63d3a8d223bdcd2214e62545b.jpg", "year": 2018, "media_type": "tv"}, {"title": "Mùa Rực Rỡ Của Em (Mùa Em Rực Rỡ)", "origin_name": "In Your Radiant Season", "slug": "mua-ruc-ro-cua-em-mua-em-ruc-ro", "poster": "https://phimimg.com/upload/vod/20260223-1/8a44c515d71551459012656dfccf6e31.jpg", "year": 2026, "media_type": "tv"}, {"title": "Chỉ Còn Một Chữ Tình (Chỉ Tình Yêu Cứu Được Tình Yêu)", "origin_name": "Reign Over Me", "slug": "chi-con-mot-chu-tinh-chi-tinh-yeu-cuu-duoc-tinh-yeu", "poster": "https://phimimg.com/upload/vod/20260414-1/2685b4fb7745e7de700e32df0e13aed7.jpg", "year": 2007, "media_type": "movie"}, {"title": "Xưởng Phép Thuật", "origin_name": "Witch Hat Atelier", "slug": "xuong-phep-thuat", "poster": "https://phimimg.com/upload/vod/20260407-1/3bb5bc3b3643a8ebc77c97b3c86fdf96.jpg", "year": 2026, "media_type": "tv"}, {"title": "Trò Chơi Dối Trá", "origin_name": "LIAR GAME", "slug": "tro-choi-doi-tra-2026", "poster": "https://phimimg.com/upload/vod/20260411-1/a951760069de3be74886366297435981.jpg", "year": 2026, "media_type": "tv"}, {"title": "Cô Lớp Trưởng Vụng Về Và Cô Gái Mặc Váy Ngắn", "origin_name": "The Klutzy Class Monitor And The Girl With The Short Skirt", "slug": "co-lop-truong-vung-ve-va-co-gai-mac-vay-ngan", "poster": "https://phimimg.com/upload/vod/20260407-1/eefcd47bed2bc21f1520fd5c519aca96.jpg", "year": 2026, "media_type": "tv"}], "pagination": {"totalItems": 27042, "totalItemsPerPage": 10, "currentPage": 3, "totalPages": 2705}, "success": true}}}